<svg width="40" height="37" viewBox="0 0 40 37" fill="none" xmlns="http://www.w3.org/2000/svg">
<path d="M20.0032 0.566406C8.39483 0.566406 8.39483 12.0676 8.39483 12.0676V13.9845C8.39483 13.9845 8.35033 13.9826 8.27294 13.9826C7.61514 13.9826 4.52539 14.1167 4.52539 16.6585C4.52539 19.6201 7.80861 19.7351 8.32711 19.7351C8.37161 19.7351 8.39483 19.7351 8.39483 19.7351C8.39483 21.6519 5.19867 23.8966 3.10143 24.4161C1.14736 25.1675 0.681097 26.4498 0.655945 27.4217C0.640467 28.0025 0.783637 28.4721 0.861025 28.6542C1.59042 30.3507 3.7573 31.2267 5.87969 31.2267C5.95321 33.9851 7.96145 35.07 9.30608 35.07C10.8423 35.07 12.4674 34.3263 12.4674 34.3263C12.5467 34.3914 15.0212 36.9869 20.0032 36.9869C24.9851 36.9869 27.4596 34.3914 27.5408 34.3263C27.5408 34.3263 29.1641 35.07 30.7022 35.07C32.0468 35.07 34.0531 33.9851 34.1266 31.2267C36.249 31.2267 38.4159 30.3507 39.1453 28.6542C39.2227 28.4721 39.3658 28.0025 39.3504 27.4217C39.3252 26.4498 38.8589 25.1675 36.9049 24.4161C34.8076 23.8966 31.6115 21.6519 31.6115 19.7351C31.6115 19.7351 31.6347 19.7351 31.6792 19.7351C32.1977 19.7351 35.4809 19.6201 35.4809 16.6585C35.4809 14.1167 32.3912 13.9826 31.7334 13.9826C31.656 13.9826 31.6115 13.9845 31.6115 13.9845V12.0676C31.6115 12.0676 31.6115 0.566406 20.0032 0.566406Z" fill="#1D4A29"/>
</svg>
